solid OpenSCAD_Model
  facet normal -0.406731 -0.913548 0
    outer loop
      vertex -11.75 -20.3516 5
      vertex -7.2619 -22.3498 100
      vertex -11.75 -20.3516 100
    endloop
  endfacet
  facet normal -0.406731 -0.913548 -0
    outer loop
      vertex -7.2619 -22.3498 100
      vertex -11.75 -20.3516 5
      vertex -7.2619 -22.3498 5
    endloop
  endfacet
  facet normal -0.951054 -0.309026 0
    outer loop
      vertex -21.4683 -9.55831 5
      vertex -22.9865 -4.88592 100
      vertex -22.9865 -4.88592 5
    endloop
  endfacet
  facet normal -0.951054 -0.309026 0
    outer loop
      vertex -22.9865 -4.88592 100
      vertex -21.4683 -9.55831 5
      vertex -21.4683 -9.55831 100
    endloop
  endfacet
  facet normal 0.951054 0.309026 0
    outer loop
      vertex 22.9865 4.88592 100
      vertex 21.4683 9.55831 5
      vertex 21.4683 9.55831 100
    endloop
  endfacet
  facet normal 0.951054 0.309026 0
    outer loop
      vertex 21.4683 9.55831 5
      vertex 22.9865 4.88592 100
      vertex 22.9865 4.88592 5
    endloop
  endfacet
  facet normal 0.994525 0.104499 0
    outer loop
      vertex 22.9865 4.88592 100
      vertex 23.2372 2.5 25.5519
      vertex 22.9865 4.88592 5
    endloop
  endfacet
  facet normal 0.994523 0.104522 -7.37595e-07
    outer loop
      vertex 23.5 0 100
      vertex 23.2372 2.5 25.5519
      vertex 22.9865 4.88592 100
    endloop
  endfacet
  facet normal 0.99452 0.104544 0
    outer loop
      vertex 23.2372 2.5 25.5519
      vertex 23.5 0 100
      vertex 23.5 0 25.0968
    endloop
  endfacet
  facet normal 0.994525 0.104499 0
    outer loop
      vertex 22.9865 4.88592 5
      vertex 23.2372 2.5 25.5519
      vertex 23.2372 2.5 5
    endloop
  endfacet
  facet normal 0.866029 0.499993 0
    outer loop
      vertex 21.4683 9.55831 100
      vertex 19.0119 13.813 5
      vertex 19.0119 13.813 100
    endloop
  endfacet
  facet normal 0.866029 0.499993 0
    outer loop
      vertex 19.0119 13.813 5
      vertex 21.4683 9.55831 100
      vertex 21.4683 9.55831 5
    endloop
  endfacet
  facet normal 0.587783 -0.809019 0
    outer loop
      vertex 11.75 -20.3516 5
      vertex 15.7246 -17.4639 100
      vertex 11.75 -20.3516 100
    endloop
  endfacet
  facet normal 0.587783 -0.809019 0
    outer loop
      vertex 15.7246 -17.4639 100
      vertex 11.75 -20.3516 5
      vertex 15.7246 -17.4639 5
    endloop
  endfacet
  facet normal 0.406731 0.913548 -0
    outer loop
      vertex 11.75 20.3516 5
      vertex 7.2619 22.3498 100
      vertex 11.75 20.3516 100
    endloop
  endfacet
  facet normal 0.406731 0.913548 0
    outer loop
      vertex 7.2619 22.3498 100
      vertex 11.75 20.3516 5
      vertex 7.2619 22.3498 5
    endloop
  endfacet
  facet normal 0.99452 -0.104544 0
    outer loop
      vertex 23.5 0 100
      vertex 23.2372 -2.5 25.5519
      vertex 23.5 0 25.0968
    endloop
  endfacet
  facet normal 0.994523 -0.104522 -7.37595e-07
    outer loop
      vertex 22.9865 -4.88592 100
      vertex 23.2372 -2.5 25.5519
      vertex 23.5 0 100
    endloop
  endfacet
  facet normal 0.994525 -0.104499 0
    outer loop
      vertex 22.9865 -4.88592 5
      vertex 23.2372 -2.5 25.5519
      vertex 22.9865 -4.88592 100
    endloop
  endfacet
  facet normal 0.994525 -0.104499 0
    outer loop
      vertex 23.2372 -2.5 25.5519
      vertex 22.9865 -4.88592 5
      vertex 23.2372 -2.5 5
    endloop
  endfacet
  facet normal 0.743143 0.669132 0
    outer loop
      vertex 19.0119 13.813 100
      vertex 15.7246 17.4639 5
      vertex 15.7246 17.4639 100
    endloop
  endfacet
  facet normal 0.743143 0.669132 0
    outer loop
      vertex 15.7246 17.4639 5
      vertex 19.0119 13.813 100
      vertex 19.0119 13.813 5
    endloop
  endfacet
  facet normal -0.866029 0.499993 0
    outer loop
      vertex -21.4683 9.55831 5
      vertex -19.0119 13.813 100
      vertex -19.0119 13.813 5
    endloop
  endfacet
  facet normal -0.866029 0.499993 0
    outer loop
      vertex -19.0119 13.813 100
      vertex -21.4683 9.55831 5
      vertex -21.4683 9.55831 100
    endloop
  endfacet
  facet normal 0.743143 -0.669132 0
    outer loop
      vertex 15.7246 -17.4639 100
      vertex 19.0119 -13.813 5
      vertex 19.0119 -13.813 100
    endloop
  endfacet
  facet normal 0.743143 -0.669132 0
    outer loop
      vertex 19.0119 -13.813 5
      vertex 15.7246 -17.4639 100
      vertex 15.7246 -17.4639 5
    endloop
  endfacet
  facet normal -0.743143 0.669132 0
    outer loop
      vertex -19.0119 13.813 5
      vertex -15.7246 17.4639 100
      vertex -15.7246 17.4639 5
    endloop
  endfacet
  facet normal -0.743143 0.669132 0
    outer loop
      vertex -15.7246 17.4639 100
      vertex -19.0119 13.813 5
      vertex -19.0119 13.813 100
    endloop
  endfacet
  facet normal 0.866029 -0.499993 0
    outer loop
      vertex 19.0119 -13.813 100
      vertex 21.4683 -9.55831 5
      vertex 21.4683 -9.55831 100
    endloop
  endfacet
  facet normal 0.866029 -0.499993 0
    outer loop
      vertex 21.4683 -9.55831 5
      vertex 19.0119 -13.813 100
      vertex 19.0119 -13.813 5
    endloop
  endfacet
  facet normal -0.587783 0.809019 0
    outer loop
      vertex -11.75 20.3516 5
      vertex -15.7246 17.4639 100
      vertex -11.75 20.3516 100
    endloop
  endfacet
  facet normal -0.587783 0.809019 0
    outer loop
      vertex -15.7246 17.4639 100
      vertex -11.75 20.3516 5
      vertex -15.7246 17.4639 5
    endloop
  endfacet
  facet normal 0 0 1
    outer loop
      vertex 18.5 0 100
      vertex 23.5 0 100
      vertex 22.9865 4.88592 100
    endloop
  endfacet
  facet normal 0 0 1
    outer loop
      vertex 18.0957 3.84637 100
      vertex 22.9865 4.88592 100
      vertex 21.4683 9.55831 100
    endloop
  endfacet
  facet normal 0 0 1
    outer loop
      vertex 23.5 0 100
      vertex 18.5 0 100
      vertex 22.9865 -4.88592 100
    endloop
  endfacet
  facet normal 0 0 1
    outer loop
      vertex 16.9006 7.52463 100
      vertex 21.4683 9.55831 100
      vertex 19.0119 13.813 100
    endloop
  endfacet
  facet normal -0 0 1
    outer loop
      vertex 18.0957 -3.84637 100
      vertex 22.9865 -4.88592 100
      vertex 18.5 0 100
    endloop
  endfacet
  facet normal 0 0 1
    outer loop
      vertex 22.9865 -4.88592 100
      vertex 18.0957 -3.84637 100
      vertex 21.4683 -9.55831 100
    endloop
  endfacet
  facet normal 0 0 1
    outer loop
      vertex 22.9865 4.88592 100
      vertex 18.0957 3.84637 100
      vertex 18.5 0 100
    endloop
  endfacet
  facet normal 0 0 1
    outer loop
      vertex 21.4683 9.55831 100
      vertex 16.9006 7.52463 100
      vertex 18.0957 3.84637 100
    endloop
  endfacet
  facet normal 0 0 1
    outer loop
      vertex 14.9668 10.874 100
      vertex 19.0119 13.813 100
      vertex 15.7246 17.4639 100
    endloop
  endfacet
  facet normal 0 0 1
    outer loop
      vertex 19.0119 13.813 100
      vertex 14.9668 10.874 100
      vertex 16.9006 7.52463 100
    endloop
  endfacet
  facet normal 0 0 1
    outer loop
      vertex 15.7246 17.4639 100
      vertex 12.3789 13.7482 100
      vertex 14.9668 10.874 100
    endloop
  endfacet
  facet normal 0 0 1
    outer loop
      vertex 11.75 20.3516 100
      vertex 12.3789 13.7482 100
      vertex 15.7246 17.4639 100
    endloop
  endfacet
  facet normal 0 0 1
    outer loop
      vertex 11.75 20.3516 100
      vertex 9.25 16.0215 100
      vertex 12.3789 13.7482 100
    endloop
  endfacet
  facet normal 0 0 1
    outer loop
      vertex 7.2619 22.3498 100
      vertex 9.25 16.0215 100
      vertex 11.75 20.3516 100
    endloop
  endfacet
  facet normal 0 0 1
    outer loop
      vertex 7.2619 22.3498 100
      vertex 5.71681 17.5945 100
      vertex 9.25 16.0215 100
    endloop
  endfacet
  facet normal 0 0 1
    outer loop
      vertex 2.45642 23.3713 100
      vertex 5.71681 17.5945 100
      vertex 7.2619 22.3498 100
    endloop
  endfacet
  facet normal 0 0 1
    outer loop
      vertex 2.45642 23.3713 100
      vertex 1.93378 18.3987 100
      vertex 5.71681 17.5945 100
    endloop
  endfacet
  facet normal 0 0 1
    outer loop
      vertex 2.45642 23.3713 100
      vertex -1.93378 18.3987 100
      vertex 1.93378 18.3987 100
    endloop
  endfacet
  facet normal -0 0 1
    outer loop
      vertex -2.45642 23.3713 100
      vertex -1.93378 18.3987 100
      vertex 2.45642 23.3713 100
    endloop
  endfacet
  facet normal 0 0 1
    outer loop
      vertex -2.45642 23.3713 100
      vertex -5.71681 17.5945 100
      vertex -1.93378 18.3987 100
    endloop
  endfacet
  facet normal -0 0 1
    outer loop
      vertex -7.2619 22.3498 100
      vertex -5.71681 17.5945 100
      vertex -2.45642 23.3713 100
    endloop
  endfacet
  facet normal 0 0 1
    outer loop
      vertex -7.2619 22.3498 100
      vertex -9.25 16.0215 100
      vertex -5.71681 17.5945 100
    endloop
  endfacet
  facet normal -0 0 1
    outer loop
      vertex -11.75 20.3516 100
      vertex -9.25 16.0215 100
      vertex -7.2619 22.3498 100
    endloop
  endfacet
  facet normal 0 0 1
    outer loop
      vertex -11.75 20.3516 100
      vertex -12.3789 13.7482 100
      vertex -9.25 16.0215 100
    endloop
  endfacet
  facet normal -0 0 1
    outer loop
      vertex -15.7246 17.4639 100
      vertex -12.3789 13.7482 100
      vertex -11.75 20.3516 100
    endloop
  endfacet
  facet normal 0 0 1
    outer loop
      vertex -12.3789 13.7482 100
      vertex -15.7246 17.4639 100
      vertex -14.9668 10.874 100
    endloop
  endfacet
  facet normal -0 0 1
    outer loop
      vertex -19.0119 13.813 100
      vertex -14.9668 10.874 100
      vertex -15.7246 17.4639 100
    endloop
  endfacet
  facet normal 0 0 1
    outer loop
      vertex -14.9668 10.874 100
      vertex -19.0119 13.813 100
      vertex -16.9006 7.52463 100
    endloop
  endfacet
  facet normal 0 0 1
    outer loop
      vertex -16.9006 7.52463 100
      vertex -21.4683 9.55831 100
      vertex -18.0957 3.84637 100
    endloop
  endfacet
  facet normal -0 0 1
    outer loop
      vertex -21.4683 9.55831 100
      vertex -16.9006 7.52463 100
      vertex -19.0119 13.813 100
    endloop
  endfacet
  facet normal -0 0 1
    outer loop
      vertex 16.9006 -7.52463 100
      vertex 21.4683 -9.55831 100
      vertex 18.0957 -3.84637 100
    endloop
  endfacet
  facet normal 0 0 1
    outer loop
      vertex 21.4683 -9.55831 100
      vertex 16.9006 -7.52463 100
      vertex 19.0119 -13.813 100
    endloop
  endfacet
  facet normal -0 0 1
    outer loop
      vertex 14.9668 -10.874 100
      vertex 19.0119 -13.813 100
      vertex 16.9006 -7.52463 100
    endloop
  endfacet
  facet normal 0 0 1
    outer loop
      vertex 19.0119 -13.813 100
      vertex 14.9668 -10.874 100
      vertex 15.7246 -17.4639 100
    endloop
  endfacet
  facet normal -0 0 1
    outer loop
      vertex 12.3789 -13.7482 100
      vertex 15.7246 -17.4639 100
      vertex 14.9668 -10.874 100
    endloop
  endfacet
  facet normal 0 0 1
    outer loop
      vertex 12.3789 -13.7482 100
      vertex 11.75 -20.3516 100
      vertex 15.7246 -17.4639 100
    endloop
  endfacet
  facet normal -0 0 1
    outer loop
      vertex 9.25 -16.0215 100
      vertex 11.75 -20.3516 100
      vertex 12.3789 -13.7482 100
    endloop
  endfacet
  facet normal 0 0 1
    outer loop
      vertex 9.25 -16.0215 100
      vertex 7.2619 -22.3498 100
      vertex 11.75 -20.3516 100
    endloop
  endfacet
  facet normal -0 0 1
    outer loop
      vertex 5.71681 -17.5945 100
      vertex 7.2619 -22.3498 100
      vertex 9.25 -16.0215 100
    endloop
  endfacet
  facet normal 0 0 1
    outer loop
      vertex 5.71681 -17.5945 100
      vertex 2.45642 -23.3713 100
      vertex 7.2619 -22.3498 100
    endloop
  endfacet
  facet normal -0 0 1
    outer loop
      vertex 1.93378 -18.3987 100
      vertex 2.45642 -23.3713 100
      vertex 5.71681 -17.5945 100
    endloop
  endfacet
  facet normal -0 0 1
    outer loop
      vertex -1.93378 -18.3987 100
      vertex 2.45642 -23.3713 100
      vertex 1.93378 -18.3987 100
    endloop
  endfacet
  facet normal 0 0 1
    outer loop
      vertex -1.93378 -18.3987 100
      vertex -2.45642 -23.3713 100
      vertex 2.45642 -23.3713 100
    endloop
  endfacet
  facet normal 0 0 1
    outer loop
      vertex -5.71681 -17.5945 100
      vertex -2.45642 -23.3713 100
      vertex -1.93378 -18.3987 100
    endloop
  endfacet
  facet normal 0 0 1
    outer loop
      vertex -5.71681 -17.5945 100
      vertex -7.2619 -22.3498 100
      vertex -2.45642 -23.3713 100
    endloop
  endfacet
  facet normal 0 0 1
    outer loop
      vertex -9.25 -16.0215 100
      vertex -7.2619 -22.3498 100
      vertex -5.71681 -17.5945 100
    endloop
  endfacet
  facet normal 0 0 1
    outer loop
      vertex -9.25 -16.0215 100
      vertex -11.75 -20.3516 100
      vertex -7.2619 -22.3498 100
    endloop
  endfacet
  facet normal 0 0 1
    outer loop
      vertex -12.3789 -13.7482 100
      vertex -11.75 -20.3516 100
      vertex -9.25 -16.0215 100
    endloop
  endfacet
  facet normal 0 0 1
    outer loop
      vertex -15.7246 -17.4639 100
      vertex -12.3789 -13.7482 100
      vertex -14.9668 -10.874 100
    endloop
  endfacet
  facet normal 0 0 1
    outer loop
      vertex -12.3789 -13.7482 100
      vertex -15.7246 -17.4639 100
      vertex -11.75 -20.3516 100
    endloop
  endfacet
  facet normal 0 0 1
    outer loop
      vertex -19.0119 -13.813 100
      vertex -14.9668 -10.874 100
      vertex -16.9006 -7.52463 100
    endloop
  endfacet
  facet normal 0 0 1
    outer loop
      vertex -21.4683 -9.55831 100
      vertex -16.9006 -7.52463 100
      vertex -18.0957 -3.84637 100
    endloop
  endfacet
  facet normal 0 0 1
    outer loop
      vertex -14.9668 -10.874 100
      vertex -19.0119 -13.813 100
      vertex -15.7246 -17.4639 100
    endloop
  endfacet
  facet normal 0 0 1
    outer loop
      vertex -22.9865 -4.88592 100
      vertex -18.0957 -3.84637 100
      vertex -18.5 0 100
    endloop
  endfacet
  facet normal -0 0 1
    outer loop
      vertex -22.9865 4.88592 100
      vertex -18.0957 3.84637 100
      vertex -21.4683 9.55831 100
    endloop
  endfacet
  facet normal 0 0 1
    outer loop
      vertex -18.0957 3.84637 100
      vertex -22.9865 4.88592 100
      vertex -18.5 0 100
    endloop
  endfacet
  facet normal 0 0 1
    outer loop
      vertex -16.9006 -7.52463 100
      vertex -21.4683 -9.55831 100
      vertex -19.0119 -13.813 100
    endloop
  endfacet
  facet normal 0 0 1
    outer loop
      vertex -23.5 0 100
      vertex -18.5 0 100
      vertex -22.9865 4.88592 100
    endloop
  endfacet
  facet normal 0 0 1
    outer loop
      vertex -18.0957 -3.84637 100
      vertex -22.9865 -4.88592 100
      vertex -21.4683 -9.55831 100
    endloop
  endfacet
  facet normal 0 0 1
    outer loop
      vertex -18.5 0 100
      vertex -23.5 0 100
      vertex -22.9865 -4.88592 100
    endloop
  endfacet
  facet normal 0.951054 -0.309026 0
    outer loop
      vertex 21.4683 -9.55831 100
      vertex 22.9865 -4.88592 5
      vertex 22.9865 -4.88592 100
    endloop
  endfacet
  facet normal 0.951054 -0.309026 0
    outer loop
      vertex 22.9865 -4.88592 5
      vertex 21.4683 -9.55831 100
      vertex 21.4683 -9.55831 5
    endloop
  endfacet
  facet normal 0 1 -0
    outer loop
      vertex 2.45642 23.3713 25.3198
      vertex -2.45642 23.3713 100
      vertex 2.45642 23.3713 100
    endloop
  endfacet
  facet normal 0 1 0
    outer loop
      vertex -2.45642 23.3713 100
      vertex 2.45642 23.3713 25.3198
      vertex -2.45642 23.3713 25.3198
    endloop
  endfacet
  facet normal -0.587783 -0.809019 0
    outer loop
      vertex -15.7246 -17.4639 5
      vertex -11.75 -20.3516 100
      vertex -15.7246 -17.4639 100
    endloop
  endfacet
  facet normal -0.587783 -0.809019 -0
    outer loop
      vertex -11.75 -20.3516 100
      vertex -15.7246 -17.4639 5
      vertex -11.75 -20.3516 5
    endloop
  endfacet
  facet normal 0 0 -1
    outer loop
      vertex 55.0957 20.8203 0
      vertex 55.0957 28.513 0
      vertex 55.5 24.6667 0
    endloop
  endfacet
  facet normal 0 0 -1
    outer loop
      vertex 55.0957 20.8203 0
      vertex 53.9006 32.1913 0
      vertex 55.0957 28.513 0
    endloop
  endfacet
  facet normal 0 0 -1
    outer loop
      vertex 55.0957 20.8203 0
      vertex 51.9668 35.5407 0
      vertex 53.9006 32.1913 0
    endloop
  endfacet
  facet normal 0 0 -1
    outer loop
      vertex 55.0957 20.8203 0
      vertex 49.3789 38.4148 0
      vertex 51.9668 35.5407 0
    endloop
  endfacet
  facet normal 0 0 -1
    outer loop
      vertex 55.0957 20.8203 0
      vertex 46.25 40.6881 0
      vertex 49.3789 38.4148 0
    endloop
  endfacet
  facet normal 0 0 -1
    outer loop
      vertex 55.0957 20.8203 0
      vertex 42.7168 42.2612 0
      vertex 46.25 40.6881 0
    endloop
  endfacet
  facet normal 0 0 -1
    outer loop
      vertex 55.0957 20.8203 0
      vertex 38.9338 43.0653 0
      vertex 42.7168 42.2612 0
    endloop
  endfacet
  facet normal 0 0 -1
    outer loop
      vertex -55.0957 20.8203 0
      vertex 55.0957 20.8203 0
      vertex 27.3457 -70.4464 0
    endloop
  endfacet
  facet normal 0 0 -1
    outer loop
      vertex 11.1838 -84.9987 0
      vertex 27.3457 -70.4464 0
      vertex 26.1506 -74.1246 0
    endloop
  endfacet
  facet normal 0 0 -1
    outer loop
      vertex 11.1838 -84.9987 0
      vertex 26.1506 -74.1246 0
      vertex 24.2168 -77.474 0
    endloop
  endfacet
  facet normal 0 0 -1
    outer loop
      vertex 11.1838 -84.9987 0
      vertex 24.2168 -77.474 0
      vertex 21.6289 -80.3482 0
    endloop
  endfacet
  facet normal 0 0 -1
    outer loop
      vertex 11.1838 -84.9987 0
      vertex 21.6289 -80.3482 0
      vertex 18.5 -82.6215 0
    endloop
  endfacet
  facet normal 0 0 -1
    outer loop
      vertex 11.1838 -84.9987 0
      vertex 18.5 -82.6215 0
      vertex 14.9668 -84.1945 0
    endloop
  endfacet
  facet normal -0 0 -1
    outer loop
      vertex 27.3457 -70.4464 0
      vertex 11.1838 -84.9987 0
      vertex -27.3457 -70.4464 0
    endloop
  endfacet
  facet normal 0 0 -1
    outer loop
      vertex -27.3457 -70.4464 0
      vertex 11.1838 -84.9987 0
      vertex -11.1838 -84.9987 0
    endloop
  endfacet
  facet normal 0 0 -1
    outer loop
      vertex -27.3457 -70.4464 0
      vertex -11.1838 -84.9987 0
      vertex -14.9668 -84.1945 0
    endloop
  endfacet
  facet normal 0 0 -1
    outer loop
      vertex -27.3457 -70.4464 0
      vertex -14.9668 -84.1945 0
      vertex -18.5 -82.6215 0
    endloop
  endfacet
  facet normal 0 0 -1
    outer loop
      vertex -27.3457 -70.4464 0
      vertex -18.5 -82.6215 0
      vertex -21.6289 -80.3482 0
    endloop
  endfacet
  facet normal 0 0 -1
    outer loop
      vertex -27.3457 -70.4464 0
      vertex -21.6289 -80.3482 0
      vertex -24.2168 -77.474 0
    endloop
  endfacet
  facet normal 0 0 -1
    outer loop
      vertex -27.3457 -70.4464 0
      vertex -24.2168 -77.474 0
      vertex -26.1506 -74.1246 0
    endloop
  endfacet
  facet normal 0 0 -1
    outer loop
      vertex -55.0957 20.8203 0
      vertex 27.3457 -70.4464 0
      vertex -27.3457 -70.4464 0
    endloop
  endfacet
  facet normal 0 0 -1
    outer loop
      vertex 55.0957 20.8203 0
      vertex -55.0957 20.8203 0
      vertex 38.9338 43.0653 0
    endloop
  endfacet
  facet normal -0 0 -1
    outer loop
      vertex 38.9338 43.0653 0
      vertex -55.0957 20.8203 0
      vertex -38.9338 43.0653 0
    endloop
  endfacet
  facet normal 0 0 -1
    outer loop
      vertex -38.9338 43.0653 0
      vertex -55.0957 20.8203 0
      vertex -42.7168 42.2612 0
    endloop
  endfacet
  facet normal 0 0 -1
    outer loop
      vertex -42.7168 42.2612 0
      vertex -55.0957 20.8203 0
      vertex -46.25 40.6881 0
    endloop
  endfacet
  facet normal 0 0 -1
    outer loop
      vertex -46.25 40.6881 0
      vertex -55.0957 20.8203 0
      vertex -49.3789 38.4148 0
    endloop
  endfacet
  facet normal 0 0 -1
    outer loop
      vertex -49.3789 38.4148 0
      vertex -55.0957 20.8203 0
      vertex -51.9668 35.5407 0
    endloop
  endfacet
  facet normal 0 0 -1
    outer loop
      vertex -51.9668 35.5407 0
      vertex -55.0957 20.8203 0
      vertex -53.9006 32.1913 0
    endloop
  endfacet
  facet normal 0 0 -1
    outer loop
      vertex -55.0957 20.8203 0
      vertex -55.0957 28.513 0
      vertex -53.9006 32.1913 0
    endloop
  endfacet
  facet normal 0 -0 -1
    outer loop
      vertex -55.0957 28.513 0
      vertex -55.0957 20.8203 0
      vertex -55.5 24.6667 0
    endloop
  endfacet
  facet normal -0.406731 0.913548 0
    outer loop
      vertex -7.2619 22.3498 5
      vertex -11.75 20.3516 100
      vertex -7.2619 22.3498 100
    endloop
  endfacet
  facet normal -0.406731 0.913548 0
    outer loop
      vertex -11.75 20.3516 100
      vertex -7.2619 22.3498 5
      vertex -11.75 20.3516 5
    endloop
  endfacet
  facet normal -0.994525 -0.104499 0
    outer loop
      vertex -23.2372 -2.5 5
      vertex -22.9865 -4.88592 5
      vertex -23.2372 -2.5 25.5519
    endloop
  endfacet
  facet normal -0.99452 -0.104544 0
    outer loop
      vertex -23.2372 -2.5 25.5519
      vertex -23.5 0 100
      vertex -23.5 0 25.0968
    endloop
  endfacet
  facet normal -0.994525 -0.104499 -0
    outer loop
      vertex -22.9865 -4.88592 100
      vertex -23.2372 -2.5 25.5519
      vertex -22.9865 -4.88592 5
    endloop
  endfacet
  facet normal -0.994523 -0.104522 -7.37595e-07
    outer loop
      vertex -23.2372 -2.5 25.5519
      vertex -22.9865 -4.88592 100
      vertex -23.5 0 100
    endloop
  endfacet
  facet normal -0.743143 -0.669132 0
    outer loop
      vertex -15.7246 -17.4639 5
      vertex -19.0119 -13.813 100
      vertex -19.0119 -13.813 5
    endloop
  endfacet
  facet normal -0.743143 -0.669132 0
    outer loop
      vertex -19.0119 -13.813 100
      vertex -15.7246 -17.4639 5
      vertex -15.7246 -17.4639 100
    endloop
  endfacet
  facet normal -0.866029 -0.499993 0
    outer loop
      vertex -19.0119 -13.813 5
      vertex -21.4683 -9.55831 100
      vertex -21.4683 -9.55831 5
    endloop
  endfacet
  facet normal -0.866029 -0.499993 0
    outer loop
      vertex -21.4683 -9.55831 100
      vertex -19.0119 -13.813 5
      vertex -19.0119 -13.813 100
    endloop
  endfacet
  facet normal 0.207924 -0.978145 -4.74338e-07
    outer loop
      vertex 2.45642 -23.3713 100
      vertex 2.5 -23.362 25.3358
      vertex 7.2619 -22.3498 100
    endloop
  endfacet
  facet normal 0.208701 -0.977979 0
    outer loop
      vertex 2.5 -23.362 25.3358
      vertex 2.45642 -23.3713 100
      vertex 2.45642 -23.3713 25.3198
    endloop
  endfacet
  facet normal 0.207917 -0.978146 0
    outer loop
      vertex 7.2619 -22.3498 5
      vertex 2.5 -23.362 25.3358
      vertex 2.5 -23.362 5
    endloop
  endfacet
  facet normal 0.207917 -0.978146 0
    outer loop
      vertex 2.5 -23.362 25.3358
      vertex 7.2619 -22.3498 5
      vertex 7.2619 -22.3498 100
    endloop
  endfacet
  facet normal -0.994525 0.104499 0
    outer loop
      vertex -23.2372 2.5 25.5519
      vertex -22.9865 4.88592 5
      vertex -23.2372 2.5 5
    endloop
  endfacet
  facet normal -0.994525 0.104499 0
    outer loop
      vertex -22.9865 4.88592 5
      vertex -23.2372 2.5 25.5519
      vertex -22.9865 4.88592 100
    endloop
  endfacet
  facet normal -0.99452 0.104544 0
    outer loop
      vertex -23.5 0 100
      vertex -23.2372 2.5 25.5519
      vertex -23.5 0 25.0968
    endloop
  endfacet
  facet normal -0.994523 0.104522 -7.37595e-07
    outer loop
      vertex -23.2372 2.5 25.5519
      vertex -23.5 0 100
      vertex -22.9865 4.88592 100
    endloop
  endfacet
  facet normal 0.207924 0.978145 -4.74338e-07
    outer loop
      vertex 7.2619 22.3498 100
      vertex 2.5 23.362 25.3358
      vertex 2.45642 23.3713 100
    endloop
  endfacet
  facet normal 0.207917 0.978146 -0
    outer loop
      vertex 7.2619 22.3498 5
      vertex 2.5 23.362 25.3358
      vertex 7.2619 22.3498 100
    endloop
  endfacet
  facet normal 0.207917 0.978146 0
    outer loop
      vertex 2.5 23.362 25.3358
      vertex 7.2619 22.3498 5
      vertex 2.5 23.362 5
    endloop
  endfacet
  facet normal 0.208701 0.977979 0
    outer loop
      vertex 2.45642 23.3713 100
      vertex 2.5 23.362 25.3358
      vertex 2.45642 23.3713 25.3198
    endloop
  endfacet
  facet normal 0.587783 0.809019 -0
    outer loop
      vertex 15.7246 17.4639 5
      vertex 11.75 20.3516 100
      vertex 15.7246 17.4639 100
    endloop
  endfacet
  facet normal 0.587783 0.809019 0
    outer loop
      vertex 11.75 20.3516 100
      vertex 15.7246 17.4639 5
      vertex 11.75 20.3516 5
    endloop
  endfacet
  facet normal -0.207924 0.978145 -4.74338e-07
    outer loop
      vertex -2.45642 23.3713 100
      vertex -2.5 23.362 25.3358
      vertex -7.2619 22.3498 100
    endloop
  endfacet
  facet normal -0.208701 0.977979 0
    outer loop
      vertex -2.5 23.362 25.3358
      vertex -2.45642 23.3713 100
      vertex -2.45642 23.3713 25.3198
    endloop
  endfacet
  facet normal -0.207917 0.978146 0
    outer loop
      vertex -7.2619 22.3498 5
      vertex -2.5 23.362 25.3358
      vertex -2.5 23.362 5
    endloop
  endfacet
  facet normal -0.207917 0.978146 0
    outer loop
      vertex -2.5 23.362 25.3358
      vertex -7.2619 22.3498 5
      vertex -7.2619 22.3498 100
    endloop
  endfacet
  facet normal 0.406731 -0.913548 0
    outer loop
      vertex 7.2619 -22.3498 5
      vertex 11.75 -20.3516 100
      vertex 7.2619 -22.3498 100
    endloop
  endfacet
  facet normal 0.406731 -0.913548 0
    outer loop
      vertex 11.75 -20.3516 100
      vertex 7.2619 -22.3498 5
      vertex 11.75 -20.3516 5
    endloop
  endfacet
  facet normal 0 -1 0
    outer loop
      vertex -2.45642 -23.3713 25.3198
      vertex 2.45642 -23.3713 100
      vertex -2.45642 -23.3713 100
    endloop
  endfacet
  facet normal 0 -1 -0
    outer loop
      vertex 2.45642 -23.3713 100
      vertex -2.45642 -23.3713 25.3198
      vertex 2.45642 -23.3713 25.3198
    endloop
  endfacet
  facet normal -0.207924 -0.978145 -4.74338e-07
    outer loop
      vertex -7.2619 -22.3498 100
      vertex -2.5 -23.362 25.3358
      vertex -2.45642 -23.3713 100
    endloop
  endfacet
  facet normal -0.207917 -0.978146 0
    outer loop
      vertex -7.2619 -22.3498 5
      vertex -2.5 -23.362 25.3358
      vertex -7.2619 -22.3498 100
    endloop
  endfacet
  facet normal -0.207917 -0.978146 -0
    outer loop
      vertex -2.5 -23.362 25.3358
      vertex -7.2619 -22.3498 5
      vertex -2.5 -23.362 5
    endloop
  endfacet
  facet normal -0.208701 -0.977979 -0
    outer loop
      vertex -2.45642 -23.3713 100
      vertex -2.5 -23.362 25.3358
      vertex -2.45642 -23.3713 25.3198
    endloop
  endfacet
  facet normal -0.951054 0.309026 0
    outer loop
      vertex -22.9865 4.88592 5
      vertex -21.4683 9.55831 100
      vertex -21.4683 9.55831 5
    endloop
  endfacet
  facet normal -0.951054 0.309026 0
    outer loop
      vertex -21.4683 9.55831 100
      vertex -22.9865 4.88592 5
      vertex -22.9865 4.88592 100
    endloop
  endfacet
  facet normal -0.866024 1.61685e-05 0.500002
    outer loop
      vertex -35.1029 2.5 5
      vertex -23.5 0 25.0968
      vertex -23.2372 2.5 25.5519
    endloop
  endfacet
  facet normal -0.866025 0 0.5
    outer loop
      vertex -35.1029 -2.5 5
      vertex -23.5 0 25.0968
      vertex -35.1029 2.5 5
    endloop
  endfacet
  facet normal -0.866024 -1.61685e-05 0.500002
    outer loop
      vertex -23.5 0 25.0968
      vertex -35.1029 -2.5 5
      vertex -23.2372 -2.5 25.5519
    endloop
  endfacet
  facet normal 0.866024 1.61685e-05 0.500002
    outer loop
      vertex 23.5 0 25.0968
      vertex 35.1029 2.5 5
      vertex 23.2372 2.5 25.5519
    endloop
  endfacet
  facet normal 0.866024 -1.61685e-05 0.500002
    outer loop
      vertex 35.1029 -2.5 5
      vertex 23.5 0 25.0968
      vertex 23.2372 -2.5 25.5519
    endloop
  endfacet
  facet normal 0.866025 0 0.5
    outer loop
      vertex 23.5 0 25.0968
      vertex 35.1029 -2.5 5
      vertex 35.1029 2.5 5
    endloop
  endfacet
  facet normal 0 -1 -0
    outer loop
      vertex -23.2372 -2.5 25.5519
      vertex -35.1029 -2.5 5
      vertex -23.2372 -2.5 5
    endloop
  endfacet
  facet normal 0 -1 0
    outer loop
      vertex 23.2372 -2.5 25.5519
      vertex 23.2372 -2.5 5
      vertex 35.1029 -2.5 5
    endloop
  endfacet
  facet normal 0 1 -0
    outer loop
      vertex -23.2372 2.5 5
      vertex -35.1029 2.5 5
      vertex -23.2372 2.5 25.5519
    endloop
  endfacet
  facet normal 0 1 0
    outer loop
      vertex 35.1029 2.5 5
      vertex 23.2372 2.5 5
      vertex 23.2372 2.5 25.5519
    endloop
  endfacet
  facet normal 0 -0.866026 0.499999
    outer loop
      vertex -2.45642 -23.3713 25.3198
      vertex -2.5 -35.1029 5
      vertex 2.45642 -23.3713 25.3198
    endloop
  endfacet
  facet normal -0.00123961 -0.866024 0.5
    outer loop
      vertex -2.5 -35.1029 5
      vertex -2.45642 -23.3713 25.3198
      vertex -2.5 -23.362 25.3358
    endloop
  endfacet
  facet normal 0 -0.866026 0.499999
    outer loop
      vertex 2.5 -35.1029 5
      vertex 2.45642 -23.3713 25.3198
      vertex -2.5 -35.1029 5
    endloop
  endfacet
  facet normal 0.00123961 -0.866024 0.5
    outer loop
      vertex 2.45642 -23.3713 25.3198
      vertex 2.5 -35.1029 5
      vertex 2.5 -23.362 25.3358
    endloop
  endfacet
  facet normal -1 0 0
    outer loop
      vertex -2.5 35.1029 5
      vertex -2.5 23.362 5
      vertex -2.5 23.362 25.3358
    endloop
  endfacet
  facet normal -1 0 0
    outer loop
      vertex -2.5 -23.362 5
      vertex -2.5 -35.1029 5
      vertex -2.5 -23.362 25.3358
    endloop
  endfacet
  facet normal 0 0.866026 0.499999
    outer loop
      vertex 2.45642 23.3713 25.3198
      vertex 2.5 35.1029 5
      vertex -2.45642 23.3713 25.3198
    endloop
  endfacet
  facet normal 0.00123961 0.866024 0.5
    outer loop
      vertex 2.5 35.1029 5
      vertex 2.45642 23.3713 25.3198
      vertex 2.5 23.362 25.3358
    endloop
  endfacet
  facet normal -0 0.866026 0.499999
    outer loop
      vertex -2.5 35.1029 5
      vertex -2.45642 23.3713 25.3198
      vertex 2.5 35.1029 5
    endloop
  endfacet
  facet normal -0.00123961 0.866024 0.5
    outer loop
      vertex -2.45642 23.3713 25.3198
      vertex -2.5 35.1029 5
      vertex -2.5 23.362 25.3358
    endloop
  endfacet
  facet normal 1 0 0
    outer loop
      vertex 2.5 23.362 25.3358
      vertex 2.5 23.362 5
      vertex 2.5 35.1029 5
    endloop
  endfacet
  facet normal 1 0 0
    outer loop
      vertex 2.5 -23.362 25.3358
      vertex 2.5 -35.1029 5
      vertex 2.5 -23.362 5
    endloop
  endfacet
  facet normal 0.951059 -0.309008 0
    outer loop
      vertex -18.0957 3.84637 100
      vertex -16.9006 7.52463 5
      vertex -16.9006 7.52463 100
    endloop
  endfacet
  facet normal 0.951059 -0.309008 0
    outer loop
      vertex -16.9006 7.52463 5
      vertex -18.0957 3.84637 100
      vertex -18.0957 3.84637 5
    endloop
  endfacet
  facet normal 0.994521 -0.104536 0
    outer loop
      vertex -18.5 0 100
      vertex -18.0957 3.84637 5
      vertex -18.0957 3.84637 100
    endloop
  endfacet
  facet normal 0.994521 -0.104536 0
    outer loop
      vertex -18.0957 3.84637 5
      vertex -18.5 0 100
      vertex -18.5 0 5
    endloop
  endfacet
  facet normal -0.207934 0.978143 0
    outer loop
      vertex 5.71681 -17.5945 5
      vertex 1.93378 -18.3987 100
      vertex 5.71681 -17.5945 100
    endloop
  endfacet
  facet normal -0.207934 0.978143 0
    outer loop
      vertex 1.93378 -18.3987 100
      vertex 5.71681 -17.5945 5
      vertex 1.93378 -18.3987 5
    endloop
  endfacet
  facet normal 0.40672 0.913553 -0
    outer loop
      vertex -5.71681 -17.5945 5
      vertex -9.25 -16.0215 100
      vertex -5.71681 -17.5945 100
    endloop
  endfacet
  facet normal 0.40672 0.913553 0
    outer loop
      vertex -9.25 -16.0215 100
      vertex -5.71681 -17.5945 5
      vertex -9.25 -16.0215 5
    endloop
  endfacet
  facet normal -0.994521 0.104536 0
    outer loop
      vertex 18.0957 -3.84637 5
      vertex 18.5 0 100
      vertex 18.5 0 5
    endloop
  endfacet
  facet normal -0.994521 0.104536 0
    outer loop
      vertex 18.5 0 100
      vertex 18.0957 -3.84637 5
      vertex 18.0957 -3.84637 100
    endloop
  endfacet
  facet normal -0.866021 -0.500008 0
    outer loop
      vertex 16.9006 7.52463 5
      vertex 14.9668 10.874 100
      vertex 14.9668 10.874 5
    endloop
  endfacet
  facet normal -0.866021 -0.500008 0
    outer loop
      vertex 14.9668 10.874 100
      vertex 16.9006 7.52463 5
      vertex 16.9006 7.52463 100
    endloop
  endfacet
  facet normal -0.866021 0.500008 0
    outer loop
      vertex 14.9668 -10.874 5
      vertex 16.9006 -7.52463 100
      vertex 16.9006 -7.52463 5
    endloop
  endfacet
  facet normal -0.866021 0.500008 0
    outer loop
      vertex 16.9006 -7.52463 100
      vertex 14.9668 -10.874 5
      vertex 14.9668 -10.874 100
    endloop
  endfacet
  facet normal -0.994521 -0.104536 0
    outer loop
      vertex 18.5 0 5
      vertex 18.0957 3.84637 100
      vertex 18.0957 3.84637 5
    endloop
  endfacet
  facet normal -0.994521 -0.104536 0
    outer loop
      vertex 18.0957 3.84637 100
      vertex 18.5 0 5
      vertex 18.5 0 100
    endloop
  endfacet
  facet normal -0.207934 -0.978143 0
    outer loop
      vertex 1.93378 18.3987 5
      vertex 5.71681 17.5945 100
      vertex 1.93378 18.3987 100
    endloop
  endfacet
  facet normal -0.207934 -0.978143 -0
    outer loop
      vertex 5.71681 17.5945 100
      vertex 1.93378 18.3987 5
      vertex 5.71681 17.5945 5
    endloop
  endfacet
  facet normal 0.951059 0.309008 0
    outer loop
      vertex -16.9006 -7.52463 100
      vertex -18.0957 -3.84637 5
      vertex -18.0957 -3.84637 100
    endloop
  endfacet
  facet normal 0.951059 0.309008 0
    outer loop
      vertex -18.0957 -3.84637 5
      vertex -16.9006 -7.52463 100
      vertex -16.9006 -7.52463 5
    endloop
  endfacet
  facet normal -0.951059 -0.309008 0
    outer loop
      vertex 18.0957 3.84637 5
      vertex 16.9006 7.52463 100
      vertex 16.9006 7.52463 5
    endloop
  endfacet
  facet normal -0.951059 -0.309008 0
    outer loop
      vertex 16.9006 7.52463 100
      vertex 18.0957 3.84637 5
      vertex 18.0957 3.84637 100
    endloop
  endfacet
  facet normal 0.207934 0.978143 -0
    outer loop
      vertex -1.93378 -18.3987 5
      vertex -5.71681 -17.5945 100
      vertex -1.93378 -18.3987 100
    endloop
  endfacet
  facet normal 0.207934 0.978143 0
    outer loop
      vertex -5.71681 -17.5945 100
      vertex -1.93378 -18.3987 5
      vertex -5.71681 -17.5945 5
    endloop
  endfacet
  facet normal -0.40672 0.913553 0
    outer loop
      vertex 9.25 -16.0215 5
      vertex 5.71681 -17.5945 100
      vertex 9.25 -16.0215 100
    endloop
  endfacet
  facet normal -0.40672 0.913553 0
    outer loop
      vertex 5.71681 -17.5945 100
      vertex 9.25 -16.0215 5
      vertex 5.71681 -17.5945 5
    endloop
  endfacet
  facet normal -0.40672 -0.913553 0
    outer loop
      vertex 5.71681 17.5945 5
      vertex 9.25 16.0215 100
      vertex 5.71681 17.5945 100
    endloop
  endfacet
  facet normal -0.40672 -0.913553 -0
    outer loop
      vertex 9.25 16.0215 100
      vertex 5.71681 17.5945 5
      vertex 9.25 16.0215 5
    endloop
  endfacet
  facet normal 0.74315 -0.669125 0
    outer loop
      vertex -14.9668 10.874 100
      vertex -12.3789 13.7482 5
      vertex -12.3789 13.7482 100
    endloop
  endfacet
  facet normal 0.74315 -0.669125 0
    outer loop
      vertex -12.3789 13.7482 5
      vertex -14.9668 10.874 100
      vertex -14.9668 10.874 5
    endloop
  endfacet
  facet normal 0.207934 -0.978143 0
    outer loop
      vertex -5.71681 17.5945 5
      vertex -1.93378 18.3987 100
      vertex -5.71681 17.5945 100
    endloop
  endfacet
  facet normal 0.207934 -0.978143 0
    outer loop
      vertex -1.93378 18.3987 100
      vertex -5.71681 17.5945 5
      vertex -1.93378 18.3987 5
    endloop
  endfacet
  facet normal -0.587789 0.809014 0
    outer loop
      vertex 12.3789 -13.7482 5
      vertex 9.25 -16.0215 100
      vertex 12.3789 -13.7482 100
    endloop
  endfacet
  facet normal -0.587789 0.809014 0
    outer loop
      vertex 9.25 -16.0215 100
      vertex 12.3789 -13.7482 5
      vertex 9.25 -16.0215 5
    endloop
  endfacet
  facet normal 0.587789 0.809014 -0
    outer loop
      vertex -9.25 -16.0215 5
      vertex -12.3789 -13.7482 100
      vertex -9.25 -16.0215 100
    endloop
  endfacet
  facet normal 0.587789 0.809014 0
    outer loop
      vertex -12.3789 -13.7482 100
      vertex -9.25 -16.0215 5
      vertex -12.3789 -13.7482 5
    endloop
  endfacet
  facet normal 0 -1 0
    outer loop
      vertex -1.93378 18.3987 5
      vertex 1.93378 18.3987 100
      vertex -1.93378 18.3987 100
    endloop
  endfacet
  facet normal 0 -1 -0
    outer loop
      vertex 1.93378 18.3987 100
      vertex -1.93378 18.3987 5
      vertex 1.93378 18.3987 5
    endloop
  endfacet
  facet normal 0.866021 -0.500008 0
    outer loop
      vertex -16.9006 7.52463 100
      vertex -14.9668 10.874 5
      vertex -14.9668 10.874 100
    endloop
  endfacet
  facet normal 0.866021 -0.500008 0
    outer loop
      vertex -14.9668 10.874 5
      vertex -16.9006 7.52463 100
      vertex -16.9006 7.52463 5
    endloop
  endfacet
  facet normal -0.587789 -0.809014 0
    outer loop
      vertex 9.25 16.0215 5
      vertex 12.3789 13.7482 100
      vertex 9.25 16.0215 100
    endloop
  endfacet
  facet normal -0.587789 -0.809014 -0
    outer loop
      vertex 12.3789 13.7482 100
      vertex 9.25 16.0215 5
      vertex 12.3789 13.7482 5
    endloop
  endfacet
  facet normal -0.74315 -0.669125 0
    outer loop
      vertex 14.9668 10.874 5
      vertex 12.3789 13.7482 100
      vertex 12.3789 13.7482 5
    endloop
  endfacet
  facet normal -0.74315 -0.669125 0
    outer loop
      vertex 12.3789 13.7482 100
      vertex 14.9668 10.874 5
      vertex 14.9668 10.874 100
    endloop
  endfacet
  facet normal -0.74315 0.669125 0
    outer loop
      vertex 12.3789 -13.7482 5
      vertex 14.9668 -10.874 100
      vertex 14.9668 -10.874 5
    endloop
  endfacet
  facet normal -0.74315 0.669125 0
    outer loop
      vertex 14.9668 -10.874 100
      vertex 12.3789 -13.7482 5
      vertex 12.3789 -13.7482 100
    endloop
  endfacet
  facet normal 0.587789 -0.809014 0
    outer loop
      vertex -12.3789 13.7482 5
      vertex -9.25 16.0215 100
      vertex -12.3789 13.7482 100
    endloop
  endfacet
  facet normal 0.587789 -0.809014 0
    outer loop
      vertex -9.25 16.0215 100
      vertex -12.3789 13.7482 5
      vertex -9.25 16.0215 5
    endloop
  endfacet
  facet normal 0 1 -0
    outer loop
      vertex 1.93378 -18.3987 5
      vertex -1.93378 -18.3987 100
      vertex 1.93378 -18.3987 100
    endloop
  endfacet
  facet normal 0 1 0
    outer loop
      vertex -1.93378 -18.3987 100
      vertex 1.93378 -18.3987 5
      vertex -1.93378 -18.3987 5
    endloop
  endfacet
  facet normal 0.40672 -0.913553 0
    outer loop
      vertex -9.25 16.0215 5
      vertex -5.71681 17.5945 100
      vertex -9.25 16.0215 100
    endloop
  endfacet
  facet normal 0.40672 -0.913553 0
    outer loop
      vertex -5.71681 17.5945 100
      vertex -9.25 16.0215 5
      vertex -5.71681 17.5945 5
    endloop
  endfacet
  facet normal 0.866021 0.500008 0
    outer loop
      vertex -14.9668 -10.874 100
      vertex -16.9006 -7.52463 5
      vertex -16.9006 -7.52463 100
    endloop
  endfacet
  facet normal 0.866021 0.500008 0
    outer loop
      vertex -16.9006 -7.52463 5
      vertex -14.9668 -10.874 100
      vertex -14.9668 -10.874 5
    endloop
  endfacet
  facet normal 0.74315 0.669125 0
    outer loop
      vertex -12.3789 -13.7482 100
      vertex -14.9668 -10.874 5
      vertex -14.9668 -10.874 100
    endloop
  endfacet
  facet normal 0.74315 0.669125 0
    outer loop
      vertex -14.9668 -10.874 5
      vertex -12.3789 -13.7482 100
      vertex -12.3789 -13.7482 5
    endloop
  endfacet
  facet normal -0.951059 0.309008 0
    outer loop
      vertex 16.9006 -7.52463 5
      vertex 18.0957 -3.84637 100
      vertex 18.0957 -3.84637 5
    endloop
  endfacet
  facet normal -0.951059 0.309008 0
    outer loop
      vertex 18.0957 -3.84637 100
      vertex 16.9006 -7.52463 5
      vertex 16.9006 -7.52463 100
    endloop
  endfacet
  facet normal 0.994521 0.104536 0
    outer loop
      vertex -18.0957 -3.84637 100
      vertex -18.5 0 5
      vertex -18.5 0 100
    endloop
  endfacet
  facet normal 0.994521 0.104536 0
    outer loop
      vertex -18.5 0 5
      vertex -18.0957 -3.84637 100
      vertex -18.0957 -3.84637 5
    endloop
  endfacet
  facet normal 0.95106 0.309005 0
    outer loop
      vertex 55.0957 28.513 5
      vertex 53.9006 32.1913 0
      vertex 53.9006 32.1913 5
    endloop
  endfacet
  facet normal 0.95106 0.309005 0
    outer loop
      vertex 53.9006 32.1913 0
      vertex 55.0957 28.513 5
      vertex 55.0957 28.513 0
    endloop
  endfacet
  facet normal -0.95106 0.309005 0
    outer loop
      vertex -55.0957 28.513 0
      vertex -53.9006 32.1913 5
      vertex -53.9006 32.1913 0
    endloop
  endfacet
  facet normal -0.95106 0.309005 0
    outer loop
      vertex -53.9006 32.1913 5
      vertex -55.0957 28.513 0
      vertex -55.0957 28.513 5
    endloop
  endfacet
  facet normal 0.951058 -0.309012 0
    outer loop
      vertex 26.1506 -74.1246 5
      vertex 27.3457 -70.4464 0
      vertex 27.3457 -70.4464 5
    endloop
  endfacet
  facet normal 0.951058 -0.309012 0
    outer loop
      vertex 27.3457 -70.4464 0
      vertex 26.1506 -74.1246 5
      vertex 26.1506 -74.1246 0
    endloop
  endfacet
  facet normal 0.994521 0.104538 0
    outer loop
      vertex 55.5 24.6667 5
      vertex 55.0957 28.513 0
      vertex 55.0957 28.513 5
    endloop
  endfacet
  facet normal 0.994521 0.104538 0
    outer loop
      vertex 55.0957 28.513 0
      vertex 55.5 24.6667 5
      vertex 55.5 24.6667 0
    endloop
  endfacet
  facet normal -0.207936 -0.978142 0
    outer loop
      vertex -14.9668 -84.1945 0
      vertex -11.1838 -84.9987 5
      vertex -14.9668 -84.1945 5
    endloop
  endfacet
  facet normal -0.207936 -0.978142 -0
    outer loop
      vertex -11.1838 -84.9987 5
      vertex -14.9668 -84.1945 0
      vertex -11.1838 -84.9987 0
    endloop
  endfacet
  facet normal -0.74315 -0.669125 0
    outer loop
      vertex -21.6289 -80.3482 0
      vertex -24.2168 -77.474 5
      vertex -24.2168 -77.474 0
    endloop
  endfacet
  facet normal -0.74315 -0.669125 0
    outer loop
      vertex -24.2168 -77.474 5
      vertex -21.6289 -80.3482 0
      vertex -21.6289 -80.3482 5
    endloop
  endfacet
  facet normal 0.994521 -0.104535 0
    outer loop
      vertex 55.0957 20.8203 5
      vertex 55.5 24.6667 0
      vertex 55.5 24.6667 5
    endloop
  endfacet
  facet normal 0.994521 -0.104535 0
    outer loop
      vertex 55.5 24.6667 0
      vertex 55.0957 20.8203 5
      vertex 55.0957 20.8203 0
    endloop
  endfacet
  facet normal -0.866023 0.500004 0
    outer loop
      vertex -53.9006 32.1913 0
      vertex -51.9668 35.5407 5
      vertex -51.9668 35.5407 0
    endloop
  endfacet
  facet normal -0.866023 0.500004 0
    outer loop
      vertex -51.9668 35.5407 5
      vertex -53.9006 32.1913 0
      vertex -53.9006 32.1913 5
    endloop
  endfacet
  facet normal -0.956752 -0.290904 0
    outer loop
      vertex -27.3457 -70.4464 0
      vertex -55.0957 20.8203 5
      vertex -55.0957 20.8203 0
    endloop
  endfacet
  facet normal -0.956752 -0.290904 0
    outer loop
      vertex -55.0957 20.8203 5
      vertex -27.3457 -70.4464 0
      vertex -27.3457 -70.4464 5
    endloop
  endfacet
  facet normal 0.74315 -0.669125 0
    outer loop
      vertex 21.6289 -80.3482 5
      vertex 24.2168 -77.474 0
      vertex 24.2168 -77.474 5
    endloop
  endfacet
  facet normal 0.74315 -0.669125 0
    outer loop
      vertex 24.2168 -77.474 0
      vertex 21.6289 -80.3482 5
      vertex 21.6289 -80.3482 0
    endloop
  endfacet
  facet normal 0 1 -0
    outer loop
      vertex 38.9338 43.0653 0
      vertex -38.9338 43.0653 5
      vertex 38.9338 43.0653 5
    endloop
  endfacet
  facet normal 0 1 0
    outer loop
      vertex -38.9338 43.0653 5
      vertex 38.9338 43.0653 0
      vertex -38.9338 43.0653 0
    endloop
  endfacet
  facet normal -0.587789 -0.809014 0
    outer loop
      vertex -21.6289 -80.3482 0
      vertex -18.5 -82.6215 5
      vertex -21.6289 -80.3482 5
    endloop
  endfacet
  facet normal -0.587789 -0.809014 -0
    outer loop
      vertex -18.5 -82.6215 5
      vertex -21.6289 -80.3482 0
      vertex -18.5 -82.6215 0
    endloop
  endfacet
  facet normal -0.406719 -0.913553 0
    outer loop
      vertex -18.5 -82.6215 0
      vertex -14.9668 -84.1945 5
      vertex -18.5 -82.6215 5
    endloop
  endfacet
  facet normal -0.406719 -0.913553 -0
    outer loop
      vertex -14.9668 -84.1945 5
      vertex -18.5 -82.6215 0
      vertex -14.9668 -84.1945 0
    endloop
  endfacet
  facet normal -0.994521 -0.104535 0
    outer loop
      vertex -55.0957 20.8203 0
      vertex -55.5 24.6667 5
      vertex -55.5 24.6667 0
    endloop
  endfacet
  facet normal -0.994521 -0.104535 0
    outer loop
      vertex -55.5 24.6667 5
      vertex -55.0957 20.8203 0
      vertex -55.0957 20.8203 5
    endloop
  endfacet
  facet normal 0.743139 0.669138 0
    outer loop
      vertex 51.9668 35.5407 5
      vertex 49.3789 38.4148 0
      vertex 49.3789 38.4148 5
    endloop
  endfacet
  facet normal 0.743139 0.669138 0
    outer loop
      vertex 49.3789 38.4148 0
      vertex 51.9668 35.5407 5
      vertex 51.9668 35.5407 0
    endloop
  endfacet
  facet normal 0.207936 -0.978142 0
    outer loop
      vertex 11.1838 -84.9987 0
      vertex 14.9668 -84.1945 5
      vertex 11.1838 -84.9987 5
    endloop
  endfacet
  facet normal 0.207936 -0.978142 0
    outer loop
      vertex 14.9668 -84.1945 5
      vertex 11.1838 -84.9987 0
      vertex 14.9668 -84.1945 0
    endloop
  endfacet
  facet normal 0.956752 -0.290904 0
    outer loop
      vertex 27.3457 -70.4464 5
      vertex 55.0957 20.8203 0
      vertex 55.0957 20.8203 5
    endloop
  endfacet
  facet normal 0.956752 -0.290904 0
    outer loop
      vertex 55.0957 20.8203 0
      vertex 27.3457 -70.4464 5
      vertex 27.3457 -70.4464 0
    endloop
  endfacet
  facet normal -0.207911 0.978148 0
    outer loop
      vertex -38.9338 43.0653 0
      vertex -42.7168 42.2612 5
      vertex -38.9338 43.0653 5
    endloop
  endfacet
  facet normal -0.207911 0.978148 0
    outer loop
      vertex -42.7168 42.2612 5
      vertex -38.9338 43.0653 0
      vertex -42.7168 42.2612 0
    endloop
  endfacet
  facet normal 0 0 1
    outer loop
      vertex -2.5 -23.362 5
      vertex -7.2619 -22.3498 5
      vertex -2.5 -35.1029 5
    endloop
  endfacet
  facet normal 0 0 1
    outer loop
      vertex 55.0957 20.8203 5
      vertex 19.0119 13.813 5
      vertex 35.1029 2.5 5
    endloop
  endfacet
  facet normal 0 0 1
    outer loop
      vertex 35.1029 2.5 5
      vertex 22.9865 4.88592 5
      vertex 23.2372 2.5 5
    endloop
  endfacet
  facet normal 0 0 1
    outer loop
      vertex 35.1029 2.5 5
      vertex 21.4683 9.55831 5
      vertex 22.9865 4.88592 5
    endloop
  endfacet
  facet normal 0 0 1
    outer loop
      vertex 35.1029 2.5 5
      vertex 19.0119 13.813 5
      vertex 21.4683 9.55831 5
    endloop
  endfacet
  facet normal 0 0 1
    outer loop
      vertex 38.9338 43.0653 5
      vertex 15.7246 17.4639 5
      vertex 19.0119 13.813 5
    endloop
  endfacet
  facet normal 0 0 1
    outer loop
      vertex 38.9338 43.0653 5
      vertex 11.75 20.3516 5
      vertex 15.7246 17.4639 5
    endloop
  endfacet
  facet normal -0 0 1
    outer loop
      vertex 2.5 35.1029 5
      vertex 11.75 20.3516 5
      vertex 38.9338 43.0653 5
    endloop
  endfacet
  facet normal 0 0 1
    outer loop
      vertex 11.75 20.3516 5
      vertex 2.5 35.1029 5
      vertex 7.2619 22.3498 5
    endloop
  endfacet
  facet normal 0 0 1
    outer loop
      vertex 38.9338 43.0653 5
      vertex -2.5 35.1029 5
      vertex 2.5 35.1029 5
    endloop
  endfacet
  facet normal 0 0 1
    outer loop
      vertex -2.5 35.1029 5
      vertex -7.2619 22.3498 5
      vertex -2.5 23.362 5
    endloop
  endfacet
  facet normal 0 0 1
    outer loop
      vertex -2.5 35.1029 5
      vertex -11.75 20.3516 5
      vertex -7.2619 22.3498 5
    endloop
  endfacet
  facet normal 0 0 1
    outer loop
      vertex -38.9338 43.0653 5
      vertex -11.75 20.3516 5
      vertex -2.5 35.1029 5
    endloop
  endfacet
  facet normal 0 0 1
    outer loop
      vertex -11.75 20.3516 5
      vertex -38.9338 43.0653 5
      vertex -15.7246 17.4639 5
    endloop
  endfacet
  facet normal 0 0 1
    outer loop
      vertex -22.9865 4.88592 5
      vertex -35.1029 2.5 5
      vertex -23.2372 2.5 5
    endloop
  endfacet
  facet normal 0 0 1
    outer loop
      vertex -21.4683 9.55831 5
      vertex -35.1029 2.5 5
      vertex -22.9865 4.88592 5
    endloop
  endfacet
  facet normal 0 0 1
    outer loop
      vertex -19.0119 13.813 5
      vertex -35.1029 2.5 5
      vertex -21.4683 9.55831 5
    endloop
  endfacet
  facet normal 0 0 1
    outer loop
      vertex -15.7246 17.4639 5
      vertex -38.9338 43.0653 5
      vertex -19.0119 13.813 5
    endloop
  endfacet
  facet normal 0 0 1
    outer loop
      vertex -19.0119 13.813 5
      vertex -55.0957 20.8203 5
      vertex -35.1029 2.5 5
    endloop
  endfacet
  facet normal -0 0 1
    outer loop
      vertex -55.0957 20.8203 5
      vertex -19.0119 13.813 5
      vertex -38.9338 43.0653 5
    endloop
  endfacet
  facet normal -0 0 1
    outer loop
      vertex -38.9338 43.0653 5
      vertex -2.5 35.1029 5
      vertex 38.9338 43.0653 5
    endloop
  endfacet
  facet normal 0 0 1
    outer loop
      vertex 55.0957 28.513 5
      vertex 55.0957 20.8203 5
      vertex 55.5 24.6667 5
    endloop
  endfacet
  facet normal 0 0 1
    outer loop
      vertex 53.9006 32.1913 5
      vertex 55.0957 20.8203 5
      vertex 55.0957 28.513 5
    endloop
  endfacet
  facet normal 0 0 1
    outer loop
      vertex 51.9668 35.5407 5
      vertex 55.0957 20.8203 5
      vertex 53.9006 32.1913 5
    endloop
  endfacet
  facet normal 0 0 1
    outer loop
      vertex 49.3789 38.4148 5
      vertex 55.0957 20.8203 5
      vertex 51.9668 35.5407 5
    endloop
  endfacet
  facet normal 0 0 1
    outer loop
      vertex 46.25 40.6881 5
      vertex 55.0957 20.8203 5
      vertex 49.3789 38.4148 5
    endloop
  endfacet
  facet normal 0 0 1
    outer loop
      vertex 42.7168 42.2612 5
      vertex 55.0957 20.8203 5
      vertex 46.25 40.6881 5
    endloop
  endfacet
  facet normal 0 0 1
    outer loop
      vertex 38.9338 43.0653 5
      vertex 55.0957 20.8203 5
      vertex 42.7168 42.2612 5
    endloop
  endfacet
  facet normal 0 0 1
    outer loop
      vertex 19.0119 13.813 5
      vertex 55.0957 20.8203 5
      vertex 38.9338 43.0653 5
    endloop
  endfacet
  facet normal 0 0 1
    outer loop
      vertex 35.1029 -2.5 5
      vertex 55.0957 20.8203 5
      vertex 35.1029 2.5 5
    endloop
  endfacet
  facet normal -0 0 1
    outer loop
      vertex 35.1029 -2.5 5
      vertex 27.3457 -70.4464 5
      vertex 55.0957 20.8203 5
    endloop
  endfacet
  facet normal -0 0 1
    outer loop
      vertex 19.0119 -13.813 5
      vertex 27.3457 -70.4464 5
      vertex 35.1029 -2.5 5
    endloop
  endfacet
  facet normal -0 0 1
    outer loop
      vertex 15.7246 -17.4639 5
      vertex 27.3457 -70.4464 5
      vertex 19.0119 -13.813 5
    endloop
  endfacet
  facet normal 0 0 1
    outer loop
      vertex 22.9865 -4.88592 5
      vertex 35.1029 -2.5 5
      vertex 23.2372 -2.5 5
    endloop
  endfacet
  facet normal 0 0 1
    outer loop
      vertex 21.4683 -9.55831 5
      vertex 35.1029 -2.5 5
      vertex 22.9865 -4.88592 5
    endloop
  endfacet
  facet normal 0 0 1
    outer loop
      vertex 19.0119 -13.813 5
      vertex 35.1029 -2.5 5
      vertex 21.4683 -9.55831 5
    endloop
  endfacet
  facet normal -0 0 1
    outer loop
      vertex 11.75 -20.3516 5
      vertex 27.3457 -70.4464 5
      vertex 15.7246 -17.4639 5
    endloop
  endfacet
  facet normal 0 -0 1
    outer loop
      vertex 11.1838 -84.9987 5
      vertex 27.3457 -70.4464 5
      vertex 2.5 -35.1029 5
    endloop
  endfacet
  facet normal 0 0 1
    outer loop
      vertex 27.3457 -70.4464 5
      vertex 11.1838 -84.9987 5
      vertex 26.1506 -74.1246 5
    endloop
  endfacet
  facet normal 0 0 1
    outer loop
      vertex 26.1506 -74.1246 5
      vertex 11.1838 -84.9987 5
      vertex 24.2168 -77.474 5
    endloop
  endfacet
  facet normal 0 0 1
    outer loop
      vertex 24.2168 -77.474 5
      vertex 11.1838 -84.9987 5
      vertex 21.6289 -80.3482 5
    endloop
  endfacet
  facet normal 0 0 1
    outer loop
      vertex 27.3457 -70.4464 5
      vertex 11.75 -20.3516 5
      vertex 2.5 -35.1029 5
    endloop
  endfacet
  facet normal 0 0 1
    outer loop
      vertex 21.6289 -80.3482 5
      vertex 11.1838 -84.9987 5
      vertex 18.5 -82.6215 5
    endloop
  endfacet
  facet normal 0 0 1
    outer loop
      vertex 2.5 -35.1029 5
      vertex 11.75 -20.3516 5
      vertex 7.2619 -22.3498 5
    endloop
  endfacet
  facet normal 0 0 1
    outer loop
      vertex 2.5 -35.1029 5
      vertex 7.2619 -22.3498 5
      vertex 2.5 -23.362 5
    endloop
  endfacet
  facet normal 0 0 1
    outer loop
      vertex 18.5 -82.6215 5
      vertex 11.1838 -84.9987 5
      vertex 14.9668 -84.1945 5
    endloop
  endfacet
  facet normal -0 0 1
    outer loop
      vertex -2.5 -35.1029 5
      vertex 11.1838 -84.9987 5
      vertex 2.5 -35.1029 5
    endloop
  endfacet
  facet normal 0 0 1
    outer loop
      vertex -11.75 -20.3516 5
      vertex -2.5 -35.1029 5
      vertex -7.2619 -22.3498 5
    endloop
  endfacet
  facet normal 0 -0 1
    outer loop
      vertex -11.1838 -84.9987 5
      vertex -2.5 -35.1029 5
      vertex -27.3457 -70.4464 5
    endloop
  endfacet
  facet normal 0 0 1
    outer loop
      vertex -2.5 -35.1029 5
      vertex -11.75 -20.3516 5
      vertex -27.3457 -70.4464 5
    endloop
  endfacet
  facet normal 0 0 1
    outer loop
      vertex -2.5 -35.1029 5
      vertex -11.1838 -84.9987 5
      vertex 11.1838 -84.9987 5
    endloop
  endfacet
  facet normal 0 0 1
    outer loop
      vertex -27.3457 -70.4464 5
      vertex -11.75 -20.3516 5
      vertex -15.7246 -17.4639 5
    endloop
  endfacet
  facet normal 0 0 1
    outer loop
      vertex -11.1838 -84.9987 5
      vertex -27.3457 -70.4464 5
      vertex -14.9668 -84.1945 5
    endloop
  endfacet
  facet normal 0 0 1
    outer loop
      vertex -27.3457 -70.4464 5
      vertex -15.7246 -17.4639 5
      vertex -19.0119 -13.813 5
    endloop
  endfacet
  facet normal 0 0 1
    outer loop
      vertex -35.1029 -2.5 5
      vertex -19.0119 -13.813 5
      vertex -21.4683 -9.55831 5
    endloop
  endfacet
  facet normal 0 0 1
    outer loop
      vertex -14.9668 -84.1945 5
      vertex -27.3457 -70.4464 5
      vertex -18.5 -82.6215 5
    endloop
  endfacet
  facet normal 0 0 1
    outer loop
      vertex -35.1029 -2.5 5
      vertex -21.4683 -9.55831 5
      vertex -22.9865 -4.88592 5
    endloop
  endfacet
  facet normal -0 0 1
    outer loop
      vertex -35.1029 -2.5 5
      vertex -22.9865 -4.88592 5
      vertex -23.2372 -2.5 5
    endloop
  endfacet
  facet normal 0 0 1
    outer loop
      vertex -18.5 -82.6215 5
      vertex -27.3457 -70.4464 5
      vertex -21.6289 -80.3482 5
    endloop
  endfacet
  facet normal 0 0 1
    outer loop
      vertex -21.6289 -80.3482 5
      vertex -27.3457 -70.4464 5
      vertex -24.2168 -77.474 5
    endloop
  endfacet
  facet normal 0 0 1
    outer loop
      vertex -24.2168 -77.474 5
      vertex -27.3457 -70.4464 5
      vertex -26.1506 -74.1246 5
    endloop
  endfacet
  facet normal 0 0 1
    outer loop
      vertex -19.0119 -13.813 5
      vertex -35.1029 -2.5 5
      vertex -27.3457 -70.4464 5
    endloop
  endfacet
  facet normal 0 0 1
    outer loop
      vertex -55.0957 20.8203 5
      vertex -38.9338 43.0653 5
      vertex -42.7168 42.2612 5
    endloop
  endfacet
  facet normal 0 0 1
    outer loop
      vertex -35.1029 2.5 5
      vertex -55.0957 20.8203 5
      vertex -35.1029 -2.5 5
    endloop
  endfacet
  facet normal 0 0 1
    outer loop
      vertex -55.0957 20.8203 5
      vertex -42.7168 42.2612 5
      vertex -46.25 40.6881 5
    endloop
  endfacet
  facet normal 0 0 1
    outer loop
      vertex -55.0957 20.8203 5
      vertex -46.25 40.6881 5
      vertex -49.3789 38.4148 5
    endloop
  endfacet
  facet normal 0 0 1
    outer loop
      vertex -55.0957 20.8203 5
      vertex -49.3789 38.4148 5
      vertex -51.9668 35.5407 5
    endloop
  endfacet
  facet normal 0 0 1
    outer loop
      vertex -55.0957 20.8203 5
      vertex -51.9668 35.5407 5
      vertex -53.9006 32.1913 5
    endloop
  endfacet
  facet normal 0 0 1
    outer loop
      vertex -55.0957 20.8203 5
      vertex -53.9006 32.1913 5
      vertex -55.0957 28.513 5
    endloop
  endfacet
  facet normal 0 0 1
    outer loop
      vertex -35.1029 -2.5 5
      vertex -55.0957 20.8203 5
      vertex -27.3457 -70.4464 5
    endloop
  endfacet
  facet normal 0 -0 1
    outer loop
      vertex -55.0957 20.8203 5
      vertex -55.0957 28.513 5
      vertex -55.5 24.6667 5
    endloop
  endfacet
  facet normal 0 0 1
    outer loop
      vertex 7.2619 22.3498 5
      vertex 2.5 35.1029 5
      vertex 2.5 23.362 5
    endloop
  endfacet
  facet normal 0 0 1
    outer loop
      vertex 18.0957 3.84637 5
      vertex 18.0957 -3.84637 5
      vertex 18.5 0 5
    endloop
  endfacet
  facet normal 0 0 1
    outer loop
      vertex 16.9006 7.52463 5
      vertex 18.0957 -3.84637 5
      vertex 18.0957 3.84637 5
    endloop
  endfacet
  facet normal 0 0 1
    outer loop
      vertex 16.9006 7.52463 5
      vertex 16.9006 -7.52463 5
      vertex 18.0957 -3.84637 5
    endloop
  endfacet
  facet normal 0 0 1
    outer loop
      vertex 14.9668 10.874 5
      vertex 16.9006 -7.52463 5
      vertex 16.9006 7.52463 5
    endloop
  endfacet
  facet normal 0 0 1
    outer loop
      vertex 14.9668 10.874 5
      vertex 14.9668 -10.874 5
      vertex 16.9006 -7.52463 5
    endloop
  endfacet
  facet normal 0 0 1
    outer loop
      vertex 12.3789 13.7482 5
      vertex 14.9668 -10.874 5
      vertex 14.9668 10.874 5
    endloop
  endfacet
  facet normal 0 0 1
    outer loop
      vertex 12.3789 13.7482 5
      vertex 12.3789 -13.7482 5
      vertex 14.9668 -10.874 5
    endloop
  endfacet
  facet normal 0 0 1
    outer loop
      vertex 9.25 16.0215 5
      vertex 12.3789 -13.7482 5
      vertex 12.3789 13.7482 5
    endloop
  endfacet
  facet normal 0 0 1
    outer loop
      vertex 9.25 16.0215 5
      vertex 9.25 -16.0215 5
      vertex 12.3789 -13.7482 5
    endloop
  endfacet
  facet normal 0 0 1
    outer loop
      vertex 5.71681 17.5945 5
      vertex 9.25 -16.0215 5
      vertex 9.25 16.0215 5
    endloop
  endfacet
  facet normal 0 0 1
    outer loop
      vertex 5.71681 17.5945 5
      vertex 5.71681 -17.5945 5
      vertex 9.25 -16.0215 5
    endloop
  endfacet
  facet normal 0 0 1
    outer loop
      vertex 1.93378 18.3987 5
      vertex 5.71681 -17.5945 5
      vertex 5.71681 17.5945 5
    endloop
  endfacet
  facet normal 0 0 1
    outer loop
      vertex 1.93378 18.3987 5
      vertex 1.93378 -18.3987 5
      vertex 5.71681 -17.5945 5
    endloop
  endfacet
  facet normal -0 0 1
    outer loop
      vertex -1.93378 18.3987 5
      vertex 1.93378 -18.3987 5
      vertex 1.93378 18.3987 5
    endloop
  endfacet
  facet normal 0 0 1
    outer loop
      vertex -1.93378 18.3987 5
      vertex -1.93378 -18.3987 5
      vertex 1.93378 -18.3987 5
    endloop
  endfacet
  facet normal -0 0 1
    outer loop
      vertex -5.71681 17.5945 5
      vertex -1.93378 -18.3987 5
      vertex -1.93378 18.3987 5
    endloop
  endfacet
  facet normal 0 0 1
    outer loop
      vertex -5.71681 17.5945 5
      vertex -5.71681 -17.5945 5
      vertex -1.93378 -18.3987 5
    endloop
  endfacet
  facet normal -0 0 1
    outer loop
      vertex -9.25 16.0215 5
      vertex -5.71681 -17.5945 5
      vertex -5.71681 17.5945 5
    endloop
  endfacet
  facet normal 0 0 1
    outer loop
      vertex -9.25 16.0215 5
      vertex -9.25 -16.0215 5
      vertex -5.71681 -17.5945 5
    endloop
  endfacet
  facet normal -0 0 1
    outer loop
      vertex -12.3789 13.7482 5
      vertex -9.25 -16.0215 5
      vertex -9.25 16.0215 5
    endloop
  endfacet
  facet normal 0 0 1
    outer loop
      vertex -12.3789 13.7482 5
      vertex -12.3789 -13.7482 5
      vertex -9.25 -16.0215 5
    endloop
  endfacet
  facet normal -0 0 1
    outer loop
      vertex -14.9668 10.874 5
      vertex -12.3789 -13.7482 5
      vertex -12.3789 13.7482 5
    endloop
  endfacet
  facet normal 0 0 1
    outer loop
      vertex -14.9668 10.874 5
      vertex -14.9668 -10.874 5
      vertex -12.3789 -13.7482 5
    endloop
  endfacet
  facet normal -0 0 1
    outer loop
      vertex -16.9006 7.52463 5
      vertex -14.9668 -10.874 5
      vertex -14.9668 10.874 5
    endloop
  endfacet
  facet normal 0 0 1
    outer loop
      vertex -16.9006 7.52463 5
      vertex -16.9006 -7.52463 5
      vertex -14.9668 -10.874 5
    endloop
  endfacet
  facet normal -0 0 1
    outer loop
      vertex -18.0957 3.84637 5
      vertex -16.9006 -7.52463 5
      vertex -16.9006 7.52463 5
    endloop
  endfacet
  facet normal 0 0 1
    outer loop
      vertex -18.0957 3.84637 5
      vertex -18.0957 -3.84637 5
      vertex -16.9006 -7.52463 5
    endloop
  endfacet
  facet normal 0 -0 1
    outer loop
      vertex -18.0957 -3.84637 5
      vertex -18.0957 3.84637 5
      vertex -18.5 0 5
    endloop
  endfacet
  facet normal 0.587789 -0.809014 0
    outer loop
      vertex 18.5 -82.6215 0
      vertex 21.6289 -80.3482 5
      vertex 18.5 -82.6215 5
    endloop
  endfacet
  facet normal 0.587789 -0.809014 0
    outer loop
      vertex 21.6289 -80.3482 5
      vertex 18.5 -82.6215 0
      vertex 21.6289 -80.3482 0
    endloop
  endfacet
  facet normal -0.951058 -0.309012 0
    outer loop
      vertex -26.1506 -74.1246 0
      vertex -27.3457 -70.4464 5
      vertex -27.3457 -70.4464 0
    endloop
  endfacet
  facet normal -0.951058 -0.309012 0
    outer loop
      vertex -27.3457 -70.4464 5
      vertex -26.1506 -74.1246 0
      vertex -26.1506 -74.1246 5
    endloop
  endfacet
  facet normal 0.866023 0.500004 0
    outer loop
      vertex 53.9006 32.1913 5
      vertex 51.9668 35.5407 0
      vertex 51.9668 35.5407 5
    endloop
  endfacet
  facet normal 0.866023 0.500004 0
    outer loop
      vertex 51.9668 35.5407 0
      vertex 53.9006 32.1913 5
      vertex 53.9006 32.1913 0
    endloop
  endfacet
  facet normal 0.207911 0.978148 -0
    outer loop
      vertex 42.7168 42.2612 0
      vertex 38.9338 43.0653 5
      vertex 42.7168 42.2612 5
    endloop
  endfacet
  facet normal 0.207911 0.978148 0
    outer loop
      vertex 38.9338 43.0653 5
      vertex 42.7168 42.2612 0
      vertex 38.9338 43.0653 0
    endloop
  endfacet
  facet normal -0.406741 0.913544 0
    outer loop
      vertex -42.7168 42.2612 0
      vertex -46.25 40.6881 5
      vertex -42.7168 42.2612 5
    endloop
  endfacet
  facet normal -0.406741 0.913544 0
    outer loop
      vertex -46.25 40.6881 5
      vertex -42.7168 42.2612 0
      vertex -46.25 40.6881 0
    endloop
  endfacet
  facet normal 0.406719 -0.913553 0
    outer loop
      vertex 14.9668 -84.1945 0
      vertex 18.5 -82.6215 5
      vertex 14.9668 -84.1945 5
    endloop
  endfacet
  facet normal 0.406719 -0.913553 0
    outer loop
      vertex 18.5 -82.6215 5
      vertex 14.9668 -84.1945 0
      vertex 18.5 -82.6215 0
    endloop
  endfacet
  facet normal 0.866023 -0.500004 0
    outer loop
      vertex 24.2168 -77.474 5
      vertex 26.1506 -74.1246 0
      vertex 26.1506 -74.1246 5
    endloop
  endfacet
  facet normal 0.866023 -0.500004 0
    outer loop
      vertex 26.1506 -74.1246 0
      vertex 24.2168 -77.474 5
      vertex 24.2168 -77.474 0
    endloop
  endfacet
  facet normal 0 -1 0
    outer loop
      vertex -11.1838 -84.9987 0
      vertex 11.1838 -84.9987 5
      vertex -11.1838 -84.9987 5
    endloop
  endfacet
  facet normal 0 -1 -0
    outer loop
      vertex 11.1838 -84.9987 5
      vertex -11.1838 -84.9987 0
      vertex 11.1838 -84.9987 0
    endloop
  endfacet
  facet normal -0.587789 0.809014 0
    outer loop
      vertex -46.25 40.6881 0
      vertex -49.3789 38.4148 5
      vertex -46.25 40.6881 5
    endloop
  endfacet
  facet normal -0.587789 0.809014 0
    outer loop
      vertex -49.3789 38.4148 5
      vertex -46.25 40.6881 0
      vertex -49.3789 38.4148 0
    endloop
  endfacet
  facet normal -0.994521 0.104538 0
    outer loop
      vertex -55.5 24.6667 0
      vertex -55.0957 28.513 5
      vertex -55.0957 28.513 0
    endloop
  endfacet
  facet normal -0.994521 0.104538 0
    outer loop
      vertex -55.0957 28.513 5
      vertex -55.5 24.6667 0
      vertex -55.5 24.6667 5
    endloop
  endfacet
  facet normal -0.866023 -0.500004 0
    outer loop
      vertex -24.2168 -77.474 0
      vertex -26.1506 -74.1246 5
      vertex -26.1506 -74.1246 0
    endloop
  endfacet
  facet normal -0.866023 -0.500004 0
    outer loop
      vertex -26.1506 -74.1246 5
      vertex -24.2168 -77.474 0
      vertex -24.2168 -77.474 5
    endloop
  endfacet
  facet normal 0.587789 0.809014 -0
    outer loop
      vertex 49.3789 38.4148 0
      vertex 46.25 40.6881 5
      vertex 49.3789 38.4148 5
    endloop
  endfacet
  facet normal 0.587789 0.809014 0
    outer loop
      vertex 46.25 40.6881 5
      vertex 49.3789 38.4148 0
      vertex 46.25 40.6881 0
    endloop
  endfacet
  facet normal -0.743139 0.669138 0
    outer loop
      vertex -51.9668 35.5407 0
      vertex -49.3789 38.4148 5
      vertex -49.3789 38.4148 0
    endloop
  endfacet
  facet normal -0.743139 0.669138 0
    outer loop
      vertex -49.3789 38.4148 5
      vertex -51.9668 35.5407 0
      vertex -51.9668 35.5407 5
    endloop
  endfacet
  facet normal 0.406741 0.913544 -0
    outer loop
      vertex 46.25 40.6881 0
      vertex 42.7168 42.2612 5
      vertex 46.25 40.6881 5
    endloop
  endfacet
  facet normal 0.406741 0.913544 0
    outer loop
      vertex 42.7168 42.2612 5
      vertex 46.25 40.6881 0
      vertex 42.7168 42.2612 0
    endloop
  endfacet
endsolid OpenSCAD_Model
